cpu_tb.vcd
$date
	Tue Dec 17 16:56:26 2019
$end
$version
	Icarus Verilog
$end
$timescale
	1s
$end
$scope module cpu $end
$var wire 32 ! jraddr_s2 [31:0] $end
$var wire 1 " zero_s4 $end
$var wire 1 # zero_s3 $end
$var wire 32 $ zeimme_s3 [31:0] $end
$var wire 32 % zeimme [31:0] $end
$var wire 5 & writereg_s5 [4:0] $end
$var wire 5 ' writereg_s4 [4:0] $end
$var wire 5 ( writereg [4:0] $end
$var wire 1 ) wrctr_s5 $end
$var wire 1 * wrctr_s4 $end
$var wire 1 + wrctr_s3 $end
$var wire 32 , seimme_s3 [31:0] $end
$var wire 32 - seimme [31:0] $end
$var wire 5 . sa_s3 [4:0] $end
$var wire 5 / sa [4:0] $end
$var wire 5 0 rt_s3 [4:0] $end
$var wire 5 1 rt [4:0] $end
$var wire 5 2 rs_s3 [4:0] $end
$var wire 5 3 rs [4:0] $end
$var wire 26 4 rep [25:0] $end
$var wire 1 5 regwre_s5 $end
$var wire 1 6 regwre_s4 $end
$var wire 1 7 regwre_s3 $end
$var wire 1 8 regwre $end
$var wire 32 9 regwr_data_s5 [31:0] $end
$var wire 1 : regdst_s4 $end
$var wire 1 ; regdst_s3 $end
$var wire 1 < regdst $end
$var wire 32 = readata_s5 [31:0] $end
$var wire 32 > readata [31:0] $end
$var wire 5 ? rd_s3 [4:0] $end
$var wire 5 @ rd [4:0] $end
$var wire 1 A pcwre_s5 $end
$var wire 1 B pcwre_s4 $end
$var wire 1 C pcwre_s3 $end
$var wire 1 D pcwre $end
$var wire 32 E pc4_s5 [31:0] $end
$var wire 32 F pc4_s4 [31:0] $end
$var wire 32 G pc4_s3 [31:0] $end
$var wire 32 H pc4_s2 [31:0] $end
$var wire 32 I pc4 [31:0] $end
$var wire 6 J opcode [5:0] $end
$var wire 32 K jumpaddr_s4 [31:0] $end
$var wire 32 L jumpaddr_s3 [31:0] $end
$var wire 32 M jumpaddr_s2 [31:0] $end
$var wire 1 N jump_s4 $end
$var wire 1 O jump_s3 $end
$var wire 1 P jump_s2 $end
$var wire 32 Q jraddr_s4 [31:0] $end
$var wire 32 R jraddr_s3 [31:0] $end
$var wire 1 S jr_s4 $end
$var wire 1 T jr_s3 $end
$var wire 1 U jr_s2 $end
$var wire 1 V jal_s5 $end
$var wire 1 W jal_s4 $end
$var wire 1 X jal_s3 $end
$var wire 1 Y jal_s2 $end
$var wire 32 Z ir_s2 [31:0] $end
$var wire 32 [ ir [31:0] $end
$var wire 32 \ immm [31:0] $end
$var wire 16 ] imme [15:0] $end
$var wire 6 ^ funct [5:0] $end
$var wire 1 _ extsign_s3 $end
$var wire 1 ` extsign $end
$var wire 1 a dmdatasize_s4 $end
$var wire 1 b dmdatasize_s3 $end
$var wire 1 c dmdatasize $end
$var wire 1 d dbdatasrc_s5 $end
$var wire 1 e dbdatasrc_s4 $end
$var wire 1 f dbdatasrc_s3 $end
$var wire 1 g dbdatasrc $end
$var wire 32 h data2_s4 [31:0] $end
$var wire 32 i data2_s3 [31:0] $end
$var wire 32 j data2 [31:0] $end
$var wire 32 k data1_s3 [31:0] $end
$var wire 32 l data1 [31:0] $end
$var wire 32 m branchaddr_s4 [31:0] $end
$var wire 32 n branchaddr_s3 [31:0] $end
$var wire 32 o branchaddr_s2 [31:0] $end
$var wire 1 p branch_ne_s4 $end
$var wire 1 q branch_ne_s3 $end
$var wire 1 r branch_ne_s2 $end
$var wire 1 s branch_lt_s4 $end
$var wire 1 t branch_lt_s3 $end
$var wire 1 u branch_lt_s2 $end
$var wire 1 v branch_eq_s4 $end
$var wire 1 w branch_eq_s3 $end
$var wire 1 x branch_eq_s2 $end
$var wire 1 y alusrcB_s3 $end
$var wire 1 z alusrcB $end
$var wire 1 { alusrcA_s3 $end
$var wire 1 | alusrcA $end
$var wire 32 } alures_s5 [31:0] $end
$var wire 32 ~ alures_s4 [31:0] $end
$var wire 32 !" alures [31:0] $end
$var wire 32 "" aluin2_s3 [31:0] $end
$var wire 32 #" aluin1_s3 [31:0] $end
$var wire 3 $" aluctr_s3 [2:0] $end
$var wire 3 %" aluctr [2:0] $end
$var wire 1 &" Wr_s4 $end
$var wire 1 '" Wr_s3 $end
$var wire 1 (" Wr $end
$var wire 1 )" Rd_s4 $end
$var wire 1 *" Rd_s3 $end
$var wire 1 +" Rd $end
$var reg 1 ," clk $end
$var reg 1 -" flush_s1 $end
$var reg 1 ." flush_s2 $end
$var reg 1 /" flush_s3 $end
$var reg 2 0" forward_a [1:0] $end
$var reg 2 1" forward_b [1:0] $end
$var reg 32 2" fwdata1_s3 [31:0] $end
$var reg 32 3" fwdata2_s3 [31:0] $end
$var reg 32 4" pc [31:0] $end
$var reg 2 5" pcsrc [1:0] $end
$var reg 1 6" stall_s1_s2 $end
$scope module alu1 $end
$var wire 32 7" a [31:0] $end
$var wire 3 8" aluctr [2:0] $end
$var wire 32 9" b [31:0] $end
$var wire 1 # zero $end
$var reg 32 :" res [31:0] $end
$var reg 1 + wrctr $end
$upscope $end
$scope module ctr1 $end
$var wire 6 ;" funct [5:0] $end
$var wire 6 <" opcode [5:0] $end
$var reg 3 =" aluctr [2:0] $end
$var reg 1 | alusrcA $end
$var reg 1 z alusrcB $end
$var reg 1 x branch_eq $end
$var reg 1 u branch_lt $end
$var reg 1 r branch_ne $end
$var reg 1 g dbdatasrc $end
$var reg 1 c dmdatasize $end
$var reg 1 ` extsign $end
$var reg 1 U jr $end
$var reg 1 P jump $end
$var reg 1 Y link $end
$var reg 1 D pcwre $end
$var reg 1 +" rd $end
$var reg 1 < regdst $end
$var reg 1 8 regwre $end
$var reg 1 (" wr $end
$upscope $end
$scope module dm1 $end
$var wire 1 ," clk $end
$var wire 1 a length $end
$var wire 1 )" rd $end
$var wire 1 &" wr $end
$var wire 32 >" wdata [31:0] $end
$var wire 32 ?" addr [31:0] $end
$var reg 32 @" rdata [31:0] $end
$upscope $end
$scope module im_1 $end
$var wire 32 A" pc [31:0] $end
$var wire 32 B" ir [31:0] $end
$upscope $end
$scope module midreg_alures_s3 $end
$var wire 1 /" clear $end
$var wire 1 ," clk $end
$var wire 1 C" hold $end
$var wire 32 D" in [31:0] $end
$var reg 32 E" out [31:0] $end
$upscope $end
$scope module midreg_alures_s4 $end
$var wire 1 F" clear $end
$var wire 1 ," clk $end
$var wire 1 G" hold $end
$var wire 32 H" in [31:0] $end
$var reg 32 I" out [31:0] $end
$upscope $end
$scope module midreg_ctr_s2 $end
$var wire 1 6" clear $end
$var wire 1 ," clk $end
$var wire 1 J" hold $end
$var wire 12 K" in [11:0] $end
$var reg 12 L" out [11:0] $end
$upscope $end
$scope module midreg_dmdata_s4 $end
$var wire 1 M" clear $end
$var wire 1 ," clk $end
$var wire 1 N" hold $end
$var wire 32 O" in [31:0] $end
$var reg 32 P" out [31:0] $end
$upscope $end
$scope module midreg_im_s1 $end
$var wire 1 -" clear $end
$var wire 1 ," clk $end
$var wire 1 6" hold $end
$var wire 32 Q" in [31:0] $end
$var reg 32 R" out [31:0] $end
$upscope $end
$scope module midreg_jaddr_s2 $end
$var wire 1 ." clear $end
$var wire 1 ," clk $end
$var wire 1 S" hold $end
$var wire 96 T" in [95:0] $end
$var reg 96 U" out [95:0] $end
$upscope $end
$scope module midreg_jaddr_s3 $end
$var wire 1 /" clear $end
$var wire 1 ," clk $end
$var wire 1 V" hold $end
$var wire 96 W" in [95:0] $end
$var reg 96 X" out [95:0] $end
$upscope $end
$scope module midreg_jtype_s2 $end
$var wire 1 ." clear $end
$var wire 1 ," clk $end
$var wire 1 Y" hold $end
$var wire 6 Z" in [5:0] $end
$var reg 6 [" out [5:0] $end
$upscope $end
$scope module midreg_jtype_s3 $end
$var wire 1 /" clear $end
$var wire 1 ," clk $end
$var wire 1 \" hold $end
$var wire 6 ]" in [5:0] $end
$var reg 6 ^" out [5:0] $end
$upscope $end
$scope module midreg_pc4_s1 $end
$var wire 1 -" clear $end
$var wire 1 ," clk $end
$var wire 1 6" hold $end
$var wire 32 _" in [31:0] $end
$var reg 32 `" out [31:0] $end
$upscope $end
$scope module midreg_pc4_s2 $end
$var wire 1 ." clear $end
$var wire 1 ," clk $end
$var wire 1 6" hold $end
$var wire 32 a" in [31:0] $end
$var reg 32 b" out [31:0] $end
$upscope $end
$scope module midreg_pc4_s3 $end
$var wire 1 /" clear $end
$var wire 1 ," clk $end
$var wire 1 c" hold $end
$var wire 32 d" in [31:0] $end
$var reg 32 e" out [31:0] $end
$upscope $end
$scope module midreg_pc4_s4 $end
$var wire 1 f" clear $end
$var wire 1 ," clk $end
$var wire 1 g" hold $end
$var wire 32 h" in [31:0] $end
$var reg 32 i" out [31:0] $end
$upscope $end
$scope module midreg_pcwre_s2 $end
$var wire 1 ." clear $end
$var wire 1 ," clk $end
$var wire 1 6" hold $end
$var wire 1 D in $end
$var reg 1 C out $end
$upscope $end
$scope module midreg_pcwre_s3 $end
$var wire 1 j" clear $end
$var wire 1 ," clk $end
$var wire 1 /" hold $end
$var wire 1 C in $end
$var reg 1 B out $end
$upscope $end
$scope module midreg_pcwre_s4 $end
$var wire 1 k" clear $end
$var wire 1 ," clk $end
$var wire 1 B in $end
$var wire 1 A hold $end
$var reg 1 A out $end
$upscope $end
$scope module midreg_regdata_s2 $end
$var wire 1 ." clear $end
$var wire 1 ," clk $end
$var wire 1 6" hold $end
$var wire 64 l" in [63:0] $end
$var reg 64 m" out [63:0] $end
$upscope $end
$scope module midreg_regdata_s4 $end
$var wire 1 /" clear $end
$var wire 1 ," clk $end
$var wire 1 n" hold $end
$var wire 32 o" in [31:0] $end
$var reg 32 p" out [31:0] $end
$upscope $end
$scope module midreg_rs_s2 $end
$var wire 1 q" clear $end
$var wire 1 ," clk $end
$var wire 1 6" hold $end
$var wire 5 r" in [4:0] $end
$var reg 5 s" out [4:0] $end
$upscope $end
$scope module midreg_rt_rd_s2 $end
$var wire 1 ." clear $end
$var wire 1 ," clk $end
$var wire 1 6" hold $end
$var wire 10 t" in [9:0] $end
$var reg 10 u" out [9:0] $end
$upscope $end
$scope module midreg_sa_s2 $end
$var wire 1 v" clear $end
$var wire 1 ," clk $end
$var wire 1 6" hold $end
$var wire 5 w" in [4:0] $end
$var reg 5 x" out [4:0] $end
$upscope $end
$scope module midreg_seimme_s2 $end
$var wire 1 ." clear $end
$var wire 1 ," clk $end
$var wire 1 6" hold $end
$var wire 32 y" in [31:0] $end
$var reg 32 z" out [31:0] $end
$upscope $end
$scope module midreg_somectr_s3 $end
$var wire 1 /" clear $end
$var wire 1 ," clk $end
$var wire 1 {" hold $end
$var wire 6 |" in [5:0] $end
$var reg 6 }" out [5:0] $end
$upscope $end
$scope module midreg_wrctr_s3 $end
$var wire 1 ~" clear $end
$var wire 1 ," clk $end
$var wire 1 !# hold $end
$var wire 1 + in $end
$var reg 1 * out $end
$upscope $end
$scope module midreg_wrctr_s4 $end
$var wire 1 "# clear $end
$var wire 1 ," clk $end
$var wire 1 ## hold $end
$var wire 1 * in $end
$var reg 1 ) out $end
$upscope $end
$scope module midreg_wreg $end
$var wire 1 /" clear $end
$var wire 1 ," clk $end
$var wire 1 $# hold $end
$var wire 5 %# in [4:0] $end
$var reg 5 &# out [4:0] $end
$upscope $end
$scope module midreg_wreg_s4 $end
$var wire 1 '# clear $end
$var wire 1 ," clk $end
$var wire 1 (# hold $end
$var wire 5 )# in [4:0] $end
$var reg 5 *# out [4:0] $end
$upscope $end
$scope module midreg_write_s4 $end
$var wire 1 +# clear $end
$var wire 1 ," clk $end
$var wire 1 ,# hold $end
$var wire 3 -# in [2:0] $end
$var reg 3 .# out [2:0] $end
$upscope $end
$scope module midreg_zeimme_s2 $end
$var wire 1 ." clear $end
$var wire 1 ," clk $end
$var wire 1 6" hold $end
$var wire 32 /# in [31:0] $end
$var reg 32 0# out [31:0] $end
$upscope $end
$scope module midreg_zero_s3 $end
$var wire 1 1# clear $end
$var wire 1 ," clk $end
$var wire 1 2# hold $end
$var wire 1 # in $end
$var reg 1 " out $end
$upscope $end
$scope module regm $end
$var wire 1 ," clk $end
$var wire 32 3# data1 [31:0] $end
$var wire 32 4# data2 [31:0] $end
$var wire 1 V link $end
$var wire 32 5# pc [31:0] $end
$var wire 5 6# rd [4:0] $end
$var wire 1 5 regwre $end
$var wire 5 7# rs [4:0] $end
$var wire 5 8# rt [4:0] $end
$var wire 1 ) wrctr $end
$var wire 32 9# writedata [31:0] $end
$var wire 5 :# writereg [4:0] $end
$var reg 32 ;# _data1 [31:0] $end
$var reg 32 <# _data2 [31:0] $end
$var integer 32 =# i [31:0] $end
$upscope $end
$upscope $end
$enddefinitions $end
#0
$dumpvars
b100000 =#
b0 <#
b0 ;#
bx :#
bx 9#
b1 8#
b0 7#
b11111 6#
bx 5#
b0 4#
b0 3#
02#
01#
b0xxxxxxxxxxxxxxxx 0#
b1111111111111110 /#
bx .#
bx -#
0,#
0+#
bx *#
bx )#
0(#
0'#
bx &#
bx %#
0$#
0##
0"#
0!#
0~"
bx }"
bx |"
0{"
bx z"
b11111111111111111111111111111110 y"
bx x"
b11111 w"
0v"
bx u"
b111111 t"
bx s"
b0 r"
0q"
bx p"
bx o"
0n"
bx m"
b0 l"
0k"
0j"
bx i"
bx h"
0g"
0f"
bx e"
bx d"
0c"
bx b"
b100 a"
b100 `"
b1000 _"
bx ^"
bx ]"
0\"
bx ["
b0 Z"
0Y"
bx X"
bx00xxxxxxxxxxxxxxxxxxxxxxxxxxxxxxxx W"
0V"
bx00xxxxxxxxxxxxxxxxxxxxxxxxxxxxxxxx U"
b111111111111111111111111111111000000000000000111111111111111100000000000000000000000000000000000 T"
0S"
b100100000000011111111111111110 R"
b100100000000100000000000001000 Q"
bx P"
bx O"
0N"
0M"
bx L"
bx01000011011 K"
0J"
bx I"
bx H"
0G"
0F"
bx E"
bx D"
0C"
b100100000000100000000000001000 B"
b100 A"
bx @"
bx ?"
bx >"
b101 ="
b1001 <"
b111110 ;"
bx :"
bx 9"
bx 8"
bx 7"
06"
bx 5"
b100 4"
bx 3"
bx 2"
bx 1"
bx 0"
x/"
x."
x-"
1,"
0+"
x*"
x)"
0("
x'"
x&"
b101 %"
bx $"
bx #"
bx ""
bx !"
bx ~
bx }
0|
x{
1z
xy
0x
xw
xv
0u
xt
xs
0r
xq
xp
b11111111111111111111111111111100 o
bx n
bx m
b0 l
bx k
b0 j
bx i
bx h
0g
xf
xe
xd
xc
xb
xa
1`
x_
b111110 ^
b1111111111111110 ]
bx \
b100100000000100000000000001000 [
b100100000000011111111111111110 Z
0Y
xX
xW
xV
0U
xT
xS
bx R
bx Q
0P
xO
xN
b1111111111111111000 M
bx00 L
bx K
b1001 J
b1000 I
b100 H
bx G
bx F
bx E
0D
xC
xB
xA
b11111 @
bx ?
bx >
bx =
0<
x;
x:
bx 9
18
x7
x6
x5
b11111111111111110 4
b0 3
bx 2
b1 1
bx 0
b11111 /
bx .
b11111111111111111111111111111110 -
bx ,
x+
x*
x)
bx (
bx '
bx &
b1111111111111110 %
b0xxxxxxxxxxxxxxxx $
x#
x"
b0 !
$end
#5
0,"
#10
0#
b11111111111111111111111111111110 !"
b11111111111111111111111111111110 :"
b11111111111111111111111111111110 D"
b0 1"
b0 0"
1+
b0 #"
b0 7"
b11111111111111111111111111111110 ""
b11111111111111111111111111111110 9"
b0 3"
b0 o"
b0 2"
b1 (
b1 %#
bx00 K
b0 R
b1111111111111111000 L
b111111111111111111111111111111000000000000000111111111111111100000000000000000000000000000000000 W"
b11111111111111111111111111111100 n
0T
0X
0t
0q
0w
b0 ]"
0O
1_
b101 $"
b101 8"
1y
0{
0f
0'"
0*"
17
bx10000 |"
0;
b11111111111111111111111111111110 \
b0 i
b0 k
b11111 ?
b1 0
b10000000000000100000 M
b100000000000001000 4
b0 /
b0 w"
b1000 -
b1000 y"
b1000 %
b1000 /#
b1000 ]
b0 @
b0 6#
b1000000 t"
b10 1
b10 8#
b1000 ^
b1000 ;"
b1100 I
b1100 _"
b1000100000100000100000 [
b1000100000100000100000 B"
b1000100000100000100000 Q"
b1000 4"
b1000 A"
bx00xxxxxxxxxxxxxxxxxxxxxxxxxxxxxxxx X"
b111111111111111111111111111111000000000000000111111111111111100000000000000000000000000000000000 U"
b0 ["
0C
bx01000011011 L"
b100 G
b100 b"
b100 d"
b1111111111111110 $
b1111111111111110 0#
b11111111111111111111111111111110 ,
b11111111111111111111111111111110 z"
b0 m"
b11111 .
b11111 x"
b111111 u"
b0 2
b0 s"
b100100000000100000000000001000 Z
b100100000000100000000000001000 R"
b1010000000000000001000000000000010000000000000000000000000000000000000 T"
b101000 o
b1000 H
b1000 `"
b1000 a"
1,"
#15
0,"
#20
0/"
0."
0-"
b1000 !"
b1000 :"
b1000 D"
b0 5"
0z
1<
bx11000000001 K"
b0 %"
b0 ="
b10 (
b10 %#
b1000 ""
b1000 9"
b100010000010000010000000 M
b1000100000100000100000 4
b100000100000 -
b100000100000 y"
b100000100000 %
b100000100000 /#
b100000100000 ]
b1000001 t"
b1 @
b1 6#
b1 3
b1 r"
b1 7#
b100000 ^
b100000 ;"
b0 J
b0 <"
b0 ?
b10 0
b1000 \
b10000000000000100000 L
b1010000000000000001000000000000010000000000000000000000000000000000000 W"
b101000 n
0&"
0)"
0e
0:
16
b0 Q
b1111111111111111000 K
b11111111111111111111111111111100 m
0S
b100 -#
0W
0N
0s
0p
0v
b100000100011000000000010001000001000001000000000000000000000000000000000000000 T"
b10000010001100 o
b1100 H
b1100 `"
b1100 a"
b1000100000100000100000 Z
b1000100000100000100000 R"
b1000000 u"
b0 .
b0 x"
b1000 ,
b1000 z"
b1000 $
b1000 0#
b1000 G
b1000 b"
b1000 d"
b1010000000000000001000000000000010000000000000000000000000000000000000 U"
0B
bx10000 }"
1*
0"
b11111111111111111111111111111110 ~
b11111111111111111111111111111110 ?"
b11111111111111111111111111111110 E"
b11111111111111111111111111111110 H"
b0 h
b0 >"
b0 p"
b111111111111111111111111111111000000000000000111111111111111100000000000000000000000000000000000 X"
b0 ^"
b1 '
b1 &#
b1 )#
b100 F
b100 e"
b100 h"
b10000 I
b10000 _"
b1000100000100000100010 [
b1000100000100000100010 B"
b1000100000100000100010 Q"
b1100 4"
b1100 A"
1,"
#25
0,"
#30
b11111111111111111111111111111110 #"
b11111111111111111111111111111110 7"
0#
b11111111111111111111111111111110 2"
b1000 3"
b1000 o"
b10 0"
b110 !"
b110 :"
b110 D"
b1 1"
b1 (
b1 %#
b1000 ""
b1000 9"
bx11000000011 K"
b1 %"
b1 ="
b11111111111111111111111111111110 9
b11111111111111111111111111111110 9#
b1111111111111111111111111111111000000000000000000000000000000000 l"
b11111111111111111111111111111110 !
b11111111111111111111111111111110 l
b11111111111111111111111111111110 3#
b11111111111111111111111111111110 ;#
0V
0d
15
b10000000000000100000 K
b101000 m
b100010000010000010000000 L
b100000100011000000000010001000001000001000000011111111111111111111111111111110 W"
b10000010001100 n
b0 $"
b0 8"
0y
bx11000 |"
1;
b100000100000 \
b1 ?
b100010000010000010001000 M
b1000100000100000100010 4
b100000100010 -
b100000100010 y"
b100000100010 %
b100000100010 /#
b100000100010 ]
b100010 ^
b100010 ;"
b10100 I
b10100 _"
b110000001000010000000000001111 [
b110000001000010000000000001111 B"
b110000001000010000000000001111 Q"
b10000 4"
b10000 A"
0A
b100 E
b100 i"
b100 5#
b11111111111111111111111111111110 }
b11111111111111111111111111111110 I"
b1 &
b1 *#
b1 :#
1)
b100 .#
b1000 F
b1000 e"
b1000 h"
b10 '
b10 &#
b10 )#
b1010000000000000001000000000000010000000000000000000000000000000000000 X"
b1000 ~
b1000 ?"
b1000 E"
b1000 H"
b100000100011000000000010001000001000001000000000000000000000000000000000000000 U"
bx11000000001 L"
b1100 G
b1100 b"
b1100 d"
b100000100000 $
b100000100000 0#
b100000100000 ,
b100000100000 z"
b1000001 u"
b1 2
b1 s"
b1000100000100000100010 Z
b1000100000100000100010 R"
b100000100110000000000010001000001000001000100011111111111111111111111111111110 T"
b10000010011000 o
b10000 H
b10000 `"
b10000 a"
1,"
#35
0,"
#40
b11111111111111111111111111111110 !"
b11111111111111111111111111111110 :"
b11111111111111111111111111111110 D"
b10 1"
b1 0"
0`
1z
0<
bx01000011000 K"
b100 %"
b100 ="
b110 #"
b110 7"
b1000 ""
b1000 9"
b100001000000000000111100 M
b1000010000000000001111 4
b1111 -
b1111 y"
b1111 %
b1111 /#
b1111 ]
b0 @
b0 6#
b100000 t"
b1 1
b1 8#
b1111 ^
b1111 ;"
b1100 J
b1100 <"
b11111111111111111111111111111110 k
b100000100010 \
b1 $"
b1 8"
b11111111111111111111111111111110 R
b100010000010000010001000 L
b10000010011000 n
1:
b100000100110000000000010001000001000001000100000000000000000000000000000000110 W"
b110 2"
b1000 3"
b1000 o"
b11111111111111111111111111111110 Q
b100010000010000010000000 K
b10000010001100 m
b1111111111111111111111111111111011111111111111111111111111111110 l"
b11111111111111111111111111111110 j
b11111111111111111111111111111110 4#
b11111111111111111111111111111110 <#
b1000 9
b1000 9#
b10100000000000010000100000000000011110011111111111111111111111111111110 T"
b1010000 o
b10100 H
b10100 `"
b10100 a"
b110000001000010000000000001111 Z
b110000001000010000000000001111 R"
b1111111111111111111111111111111000000000000000000000000000000000 m"
b100000100010 ,
b100000100010 z"
b100000100010 $
b100000100010 0#
b10000 G
b10000 b"
b10000 d"
bx11000000011 L"
b100000100110000000000010001000001000001000100011111111111111111111111111111110 U"
bx11000 }"
b110 ~
b110 ?"
b110 E"
b110 H"
b1000 h
b1000 >"
b1000 p"
b100000100011000000000010001000001000001000000011111111111111111111111111111110 X"
b1 '
b1 &#
b1 )#
b1100 F
b1100 e"
b1100 h"
b10 &
b10 *#
b10 :#
b1000 }
b1000 I"
b1000 E
b1000 i"
b1000 5#
b11000 I
b11000 _"
b1000100000100000100100 [
b1000100000100000100100 B"
b1000100000100000100100 Q"
b10100 4"
b10100 A"
1,"
#45
0,"
#50
b1110 !"
b1110 :"
b1110 D"
b1 1"
b11111111111111111111111111111110 3"
b11111111111111111111111111111110 o"
b11111111111111111111111111111110 #"
b11111111111111111111111111111110 7"
b1111 ""
b1111 9"
0z
bx11000001000 K"
1<
b110 9
b110 9#
b1000 j
b1000 4#
b1000 <#
b11000000000000000000000000000001000 l"
b110 !
b110 l
b110 3#
b110 ;#
b110 Q
b100010000010000010001000 K
b10000010011000 m
b11111111111111111111111111111110 2"
b100001000000000000111100 L
b10100000000000010000100000000000011110011111111111111111111111111111110 W"
b1010000 n
0_
b100 $"
b100 8"
1y
bx10000 |"
0;
b1111 \
b11111111111111111111111111111110 i
b0 ?
b1 0
b100010000010000010010000 M
b1000100000100000100100 4
b100000100100 -
b100000100100 y"
b100000100100 %
b100000100100 /#
b100000100100 ]
b1 @
b1 6#
b1000001 t"
b10 1
b10 8#
b100100 ^
b100100 ;"
b0 J
b0 <"
b11100 I
b11100 _"
b110100001000010000000000000110 [
b110100001000010000000000000110 B"
b110100001000010000000000000110 Q"
b11000 4"
b11000 A"
b1100 E
b1100 i"
b1100 5#
b110 }
b110 I"
b1 &
b1 *#
b1 :#
b10000 F
b10000 e"
b10000 h"
b100000100110000000000010001000001000001000100000000000000000000000000000000110 X"
b11111111111111111111111111111110 ~
b11111111111111111111111111111110 ?"
b11111111111111111111111111111110 E"
b11111111111111111111111111111110 H"
b10100000000000010000100000000000011110011111111111111111111111111111110 U"
bx01000011000 L"
b10100 G
b10100 b"
b10100 d"
b1111 $
b1111 0#
b1111 ,
b1111 z"
b1111111111111111111111111111111011111111111111111111111111111110 m"
b100000 u"
b1000100000100000100100 Z
b1000100000100000100100 R"
b100000101010000000000010001000001000001001000000000000000000000000000000000110 T"
b10000010101000 o
b11000 H
b11000 `"
b11000 a"
1,"
#55
0,"
#60
b1000 !"
b1000 :"
b1000 D"
b0 1"
1z
0<
bx01000010110 K"
b11 %"
b11 ="
b1000 ""
b1000 9"
b1110 #"
b1110 7"
b11111111111111111111111111111110 j
b11111111111111111111111111111110 4#
b11111111111111111111111111111110 <#
b1111111111111111111111111111111011111111111111111111111111111110 l"
b11111111111111111111111111111110 !
b11111111111111111111111111111110 l
b11111111111111111111111111111110 3#
b11111111111111111111111111111110 ;#
b100001000000000000011000 M
b1000010000000000000110 4
b110 -
b110 y"
b110 %
b110 /#
b110 ]
b0 @
b0 6#
b100000 t"
b1 1
b1 8#
b110 ^
b110 ;"
b1101 J
b1101 <"
b1 ?
b10 0
b1000 i
b110 k
b100000100100 \
0y
bx11000 |"
1;
b110 R
b100010000010000010010000 L
b10000010101000 n
0:
b100000101010000000000010001000001000001001000000000000000000000000000000001110 W"
b1110 2"
b1000 3"
b1000 o"
b11111111111111111111111111111110 Q
b100001000000000000111100 K
b1010000 m
b11111111111111111111111111111110 9
b11111111111111111111111111111110 9#
b1101000000000010000100000000000001100011111111111111111111111111111110 T"
b110100 o
b11100 H
b11100 `"
b11100 a"
b110100001000010000000000000110 Z
b110100001000010000000000000110 R"
b1000001 u"
b11000000000000000000000000000001000 m"
b100000100100 ,
b100000100100 z"
b100000100100 $
b100000100100 0#
b11000 G
b11000 b"
b11000 d"
bx11000001000 L"
b100000101010000000000010001000001000001001000000000000000000000000000000000110 U"
bx10000 }"
b1110 ~
b1110 ?"
b1110 E"
b1110 H"
b11111111111111111111111111111110 h
b11111111111111111111111111111110 >"
b11111111111111111111111111111110 p"
b10100000000000010000100000000000011110011111111111111111111111111111110 X"
b10100 F
b10100 e"
b10100 h"
b11111111111111111111111111111110 }
b11111111111111111111111111111110 I"
b10000 E
b10000 i"
b10000 5#
b100000 I
b100000 _"
b100100000000110000000000000001 [
b100100000000110000000000000001 B"
b100100000000110000000000000001 Q"
b11100 4"
b11100 A"
1,"
#65
0,"
#70
b1110 !"
b1110 :"
b1110 D"
b1 1"
b1000 #"
b1000 7"
b110 ""
b110 9"
b0 j
b0 4#
b0 <#
b0 l"
b0 !
b0 l
b0 3#
b0 ;#
1`
bx01000011011 K"
b101 %"
b101 ="
b1110 9
b1110 9#
b1110 Q
b100010000010000010010000 K
b10000010101000 m
b1000 2"
b1000 3"
b1000 o"
1:
b11111111111111111111111111111110 R
b100001000000000000011000 L
b1101000000000010000100000000000001100000000000000000000000000000001000 W"
b110100 n
b11 $"
b11 8"
1y
bx10000 |"
0;
b110 \
b11111111111111111111111111111110 i
b11111111111111111111111111111110 k
b0 ?
b1 0
b11000000000000000100 M
b110000000000000001 4
b1 -
b1 y"
b1 %
b1 /#
b1 ]
b1100000 t"
b11 1
b11 8#
b0 3
b0 r"
b0 7#
b1 ^
b1 ;"
b1001 J
b1001 <"
b100100 I
b100100 _"
b10000110000100000100101 [
b10000110000100000100101 B"
b10000110000100000100101 Q"
b100000 4"
b100000 A"
b10100 E
b10100 i"
b10100 5#
b1110 }
b1110 I"
b11000 F
b11000 e"
b11000 h"
b100000101010000000000010001000001000001001000000000000000000000000000000001110 X"
b1000 h
b1000 >"
b1000 p"
b1000 ~
b1000 ?"
b1000 E"
b1000 H"
bx11000 }"
b1101000000000010000100000000000001100011111111111111111111111111111110 U"
bx01000010110 L"
b11100 G
b11100 b"
b11100 d"
b110 $
b110 0#
b110 ,
b110 z"
b1111111111111111111111111111111011111111111111111111111111111110 m"
b100000 u"
b100100000000110000000000000001 Z
b100100000000110000000000000001 R"
b1001000000000000001100000000000000010000000000000000000000000000000000 T"
b100100 o
b100000 H
b100000 `"
b100000 a"
1,"
#75
0,"
#80
b1 !"
b1 :"
b1 D"
b0 1"
b0 0"
0z
1<
bx11000000111 K"
b11 %"
b11 ="
b11 (
b11 %#
b1 ""
b1 9"
b0 #"
b0 7"
b100000000000000000000000000000000000 l"
b1000 !
b1000 l
b1000 3#
b1000 ;#
b1000011000010000010010100 M
b10000110000100000100101 4
b100000100101 -
b100000100101 y"
b100000100101 %
b100000100101 /#
b100000100101 ]
b1100001 t"
b1 @
b1 6#
b10 3
b10 r"
b10 7#
b100101 ^
b100101 ;"
b0 J
b0 <"
b11 0
b0 i
b0 k
b1 \
1_
b101 $"
b101 8"
b0 R
b11000000000000000100 L
b100100 n
0:
b1001000000000000001100000000000000010000000000000000000000000000000000 W"
b0 2"
b0 3"
b0 o"
b1000 Q
b100001000000000000011000 K
b110100 m
b1000 9
b1000 9#
b100000101110000000000100001100001000001001010000000000000000000000000000001000 T"
b10000010111000 o
b100100 H
b100100 `"
b100100 a"
b10000110000100000100101 Z
b10000110000100000100101 R"
b0 2
b0 s"
b1100000 u"
b0 m"
b1 ,
b1 z"
b1 $
b1 0#
b100000 G
b100000 b"
b100000 d"
bx01000011011 L"
b1001000000000000001100000000000000010000000000000000000000000000000000 U"
bx10000 }"
b1110 ~
b1110 ?"
b1110 E"
b1110 H"
b1101000000000010000100000000000001100000000000000000000000000000001000 X"
b11100 F
b11100 e"
b11100 h"
b1000 }
b1000 I"
b11000 E
b11000 i"
b11000 5#
b101000 I
b101000 _"
b10000100001000000 [
b10000100001000000 B"
b10000100001000000 Q"
b100100 4"
b100100 A"
1,"
#85
0,"
